…
#### Ejemplo{-}
En nuestro ejemplo de spam

```r
imp <- importance(bosque_spam, type=1)
importancia_df <- data_frame(variable = rownames(imp), MeanDecreaseAccuracy = imp[,1]) %>% 
  arrange(desc(MeanDecreaseAccuracy))
importancia_df
```

```
## # A tibble: 58 x 2
##      variable MeanDecreaseAccuracy
##         <chr>                <dbl>
##  1      cfexc             73.23231
##  2 crlaverage             61.20036
##  3   wfremove             60.82482
##  4   cfdollar             58.27833
##  5     wffree             57.10130
##  6 crllongest             53.44965
##  7       wfhp             52.07446
##  8   crltotal             52.02168
##  9      wfedu             47.85035
## 10     wfyour             46.59530
## # ... with 48 more rows
```
…
