Aprendizaje de máquina
…
dat_2 <- dat %>% gather(var, valor, gvjbevn:sbcwkfm) %>% 
  left_join(nombres) %>%
  select(-var) %>%
  group_by(nombre) %>%
  mutate(valor_escalado = valor/max(valor, na.rm=T)) %>%
  select(-valor) %>%
  spread(nombre, valor_escalado)

## Joining, by = "var"

dat_3 <- filter(dat_2, apply(dat_2, 1, function(x){!any(is.na(x))}))
dat_3

## # A tibble: 2,108 x 10
##      idno ausencia_cuidar_enfermos ayuda_padres_trabajadores
##     <int>                    <dbl>                     <dbl>
##  1 110701                      0.4                       0.5
##  2 110702                      1.0                       0.5
##  3 110703                      1.0                       0.8
##  4 110704                      0.6                       0.8
##  5 110705                      0.8                       0.9
##  6 110708                      0.7                       0.7
##  7 110710                      0.5                       0.3
##  8 110711                      0.7                       0.5
##  9 110712                      0.9                       0.3
## 10 110713                      0.7                       0.8
## # ... with 2,098 more rows, and 7 more variables:
## #   beneficios_fam_trabajo <dbl>, beneficios_igualdad <dbl>,
## #   beneficios_pobreza <dbl>, cuidados_salud_enfermos <dbl>,
## #   garantizar_nivel_desempleados <dbl>, garantizar_nivel_mayores <dbl>,
## #   trabajo_a_todos <dbl>
…
