Aprendizaje de máquina
…
## [1] "Lambda min: 0.0820849986238988"
## [1] "Error entrenamiento: 0"
## [1] "Error prueba: 0.12"
## [1] "Devianza entrena:0.136"
## [1] "Devianza prueba:0.623"

coeficientes <- predict(mod_x$mod, lambda = 'lambda.min', type = 'coefficients') 
coef_df <- data_frame(palabra = rownames(coeficientes),
                      coef = coeficientes[,1])
arrange(coef_df, coef) %>% print(n=20)

## # A tibble: 4,107 x 2
##         palabra       coef
##           <chr>      <dbl>
##  1  (Intercept) -0.5104659
##  2       sloppy -0.3049259
##  3     tiresome -0.3041222
##  4      tedious -0.2995033
##  5     designed -0.2752456
##  6       forgot -0.2752196
##  7    profanity -0.2741518
##  8    insulting -0.2635200
##  9    redeeming -0.2582221
## 10    ludicrous -0.2569009
## 11       asleep -0.2525127
## 12 embarrassing -0.2501103
## 13    miserably -0.2436195
## 14         alas -0.2433399
## 15     lifeless -0.2375580
## 16       random -0.2340050
## 17    abilities -0.2284854
## 18        inept -0.2272352
## 19   ridiculous -0.2266569
## 20    stupidity -0.2233172
## # ... with 4,087 more rows

arrange(coef_df, desc(coef)) %>% print(n=20)

## # A tibble: 4,107 x 2
##         palabra      coef
##           <chr>     <dbl>
##  1   refreshing 0.2928763
##  2       beings 0.2754203
##  3   underneath 0.2751466
##  4   commanding 0.2502302
##  5  outstanding 0.2367210
##  6    marvelous 0.2269661
##  7       finest 0.2226550
##  8     identify 0.2198893
##  9    enjoyment 0.2178993
## 10        ralph 0.2132248
## 11  exceptional 0.2124156
## 12        anger 0.2082285
## 13       mature 0.2080578
## 14    threatens 0.2079872
## 15      luckily 0.2052777
## 16       enters 0.2048924
## 17      overall 0.2012073
## 18 breathtaking 0.2004415
## 19      popcorn 0.1985406
## 20     portrait 0.1957565
## # ... with 4,087 more rows

Y busquemos las diferencias más grandes del la probabilidad ajustada con la clase observada

y <- mod_x$prueba$y
x <- mod_x$prueba$x
probs <- predict(mod_x$mod, newx = x, type ='response', s='lambda.min')

df_1 <- data_frame(id = rownames(x), y=y, prob = probs[,1]) %>%
  mutate(error = y - prob) %>% arrange(desc(abs(error)))
df_1

## # A tibble: 425 x 4
##       id     y       prob      error
##    <chr> <dbl>      <dbl>      <dbl>
##  1  1508     1 0.04079128  0.9592087
##  2  1461     1 0.04895588  0.9510441
##  3  1490     1 0.09491609  0.9050839
##  4  1933     1 0.10969336  0.8903066
##  5   222     0 0.88869902 -0.8886990
##  6    25     0 0.85875753 -0.8587575
##  7  1642     1 0.14257363  0.8574264
##  8   728     0 0.85126829 -0.8512683
##  9  1050     1 0.15208815  0.8479119
## 10   415     0 0.84431790 -0.8443179
## # ... with 415 more rows
…
## [1] "Lambda min: 0.0907179532894125"
## [1] "Error entrenamiento: 0"
## [1] "Error prueba: 0.11"
## [1] "Devianza entrena:0.153"
## [1] "Devianza prueba:0.628"

vocabulario_bigramas <- calc_vocabulario(df_ent_grande, 500, bigram = TRUE)
vocabulario_bigramas %>% arrange(desc(frec))

## # A tibble: 509 x 2
##      palabra  frec
##        <chr> <int>
##  1    of the  6984
##  2    in the  4609
##  3  the film  3167
##  4      is a  2325
##  5     to be  2218
##  6    to the  2187
##  7   and the  2019
##  8    on the  1780
##  9      in a  1756
## 10 the movie  1580
## # ... with 499 more rows

vocabulario_bigramas %>% arrange((frec))

## # A tibble: 509 x 2
##            palabra  frec
##              <chr> <int>
##  1         and one   117
##  2          are so   117
##  3      decides to   117
##  4        for some   117
##  5      might have   117
##  6        piece of   117
##  7          sci fi   117
##  8 science fiction   117
##  9        that his   117
## 10        the case   117
## # ... with 499 more rows
…
