Aprendizaje de máquina
…
El error de entrenamiento es considerablemente menor para la curva roja, y es más grande para la recta.

Sin embargo, consideremos que tenemos una nueva muestra (de prueba).

set.seed(218052272)
x_0 <- sample(0:13, 100, replace = T)
error <- rnorm(length(x_0), 0, 500)
y_0 <- f(x_0) + error
datos_prueba <- data_frame(x = x_0, y = y_0)
datos_prueba

## # A tibble: 100 x 2
##        x         y
##    <int>     <dbl>
##  1     9 2156.1160
##  2    11 3227.0968
##  3     3 2382.2805
##  4    10 3481.5850
##  5     7 2732.8020
##  6     7 2325.9217
##  7    12 3463.7795
##  8     0 -563.9233
##  9    10 3295.5705
## 10     0  365.9880
## # ... with 90 more rows
…
