Aprendizaje de máquina
…
## # A tibble: 4 x 4
##   n_modelo shrinkage    modelo                 eval
##      <int>     <dbl>    <list>               <list>
## 1        1      0.05 <S3: gbm> <tibble [1,000 x 3]>
## 2        2      0.10 <S3: gbm> <tibble [1,000 x 3]>
## 3        3      0.50 <S3: gbm> <tibble [1,000 x 3]>
## 4        4      1.00 <S3: gbm> <tibble [1,000 x 3]>

graf_eval <- modelos_dat %>% select(shrinkage, eval) %>% unnest
graf_eval

## # A tibble: 4,000 x 4
##    shrinkage n_arbol    tipo     valor
##        <dbl>   <int>   <chr>     <dbl>
##  1      0.05       1 entrena 0.3914774
##  2      0.05       2 entrena 0.3795092
##  3      0.05       3 entrena 0.3683144
##  4      0.05       4 entrena 0.3578551
##  5      0.05       5 entrena 0.3480027
##  6      0.05       6 entrena 0.3387286
##  7      0.05       7 entrena 0.3300476
##  8      0.05       8 entrena 0.3210405
##  9      0.05       9 entrena 0.3127008
## 10      0.05      10 entrena 0.3047083
## # ... with 3,990 more rows
…
## # A tibble: 3 x 5
##   n_modelo bag.fraction shrinkage    modelo                 eval
##      <int>        <dbl>     <dbl>    <list>               <list>
## 1        1         0.25      0.25 <S3: gbm> <tibble [1,000 x 3]>
## 2        2         0.50      0.25 <S3: gbm> <tibble [1,000 x 3]>
## 3        3         1.00      0.25 <S3: gbm> <tibble [1,000 x 3]>

graf_eval <- modelos_dat %>% select(bag.fraction, eval) %>% unnest
graf_eval

## # A tibble: 3,000 x 4
##    bag.fraction n_arbol    tipo     valor
##           <dbl>   <int>   <chr>     <dbl>
##  1         0.25       1 entrena 0.3404206
##  2         0.25       2 entrena 0.2948882
##  3         0.25       3 entrena 0.2582633
##  4         0.25       4 entrena 0.2316890
##  5         0.25       5 entrena 0.2106434
##  6         0.25       6 entrena 0.1946327
##  7         0.25       7 entrena 0.1825413
##  8         0.25       8 entrena 0.1733467
##  9         0.25       9 entrena 0.1652359
## 10         0.25      10 entrena 0.1596591
## # ... with 2,990 more rows
…
