Aprendizaje de máquina
…
arrange(hiperparams, binary_crossentropy)

## # A tibble: 100 x 9
##          lambda n_capa         lr n_iter init_pesos corrida      loss
##           <dbl>  <dbl>      <dbl>  <dbl>      <dbl>   <int>     <dbl>
##  1 1.557467e-08      5 0.39449976   1000  0.3677915      19 0.4278859
##  2 1.778047e-09      5 0.24924917   1000  0.5504638       2 0.4296006
##  3 4.801019e-04     10 0.17805261   1000  0.3146846      67 0.4382751
##  4 4.089486e-10     20 0.32910360   1000  0.4952716      37 0.4316516
##  5 6.355566e-07     50 0.09925637   1000  0.6199004      69 0.4319281
##  6 3.474533e-07     10 0.31243237   1000  0.4618183       7 0.4322901
##  7 3.135937e-10     20 0.13151933   1000  0.2840034      55 0.4323465
##  8 6.467834e-05     20 0.12685442   1000  0.5140470      23 0.4340249
##  9 2.284078e-05     20 0.24400867   1000  0.5521355      68 0.4332621
## 10 1.391978e-08     10 0.08317381   1000  0.5076250      60 0.4326821
## # ... with 90 more rows, and 2 more variables: binary_crossentropy <dbl>,
## #   acc <dbl>
…
