Aprendizaje de máquina
…
## The following object is masked from 'package:readr':
## 
##     col_factor

wts <- get_weights(model_2)
capa_1 <- wts[[1]] 
capa_list <- lapply(1:8, function(i){
  data_frame(val = as.numeric(t(capa_1[,,1,i])), pixel = 1:25, unidad=i)
}) %>% bind_rows %>% mutate(y = (pixel-1) %% 5, x = (pixel-1) %/% 5) %>%
  group_by(unidad) %>% mutate(val = (val-mean(val))/sd(val))
capa_list

## # A tibble: 200 x 5
## # Groups:   unidad [8]
##           val pixel unidad     y     x
##         <dbl> <int>  <int> <dbl> <dbl>
##  1 -1.4653404     1      1     0     0
##  2 -0.9698185     2      1     1     0
##  3  1.0867707     3      1     2     0
##  4  1.5496123     4      1     3     0
##  5  0.6970253     5      1     4     0
##  6 -1.6848534     6      1     0     1
##  7 -1.4587731     7      1     1     1
##  8  0.8354561     8      1     2     1
##  9  1.3157807     9      1     3     1
## 10  0.1034943    10      1     4     1
## # ... with 190 more rows
…
