Aprendizaje de máquina
…
peliculas_nombres <- read_csv('datos/netflix/peliculas_1.csv')

## Parsed with column specification:
## cols(
##   pelicula_id = col_integer(),
##   year = col_integer(),
##   name = col_character()
## )

peliculas_nombres

## # A tibble: 646 x 3
##    pelicula_id  year                                name
##          <int> <int>                               <chr>
##  1           1  2003              Something's Gotta Give
##  2           2  1992                      Reservoir Dogs
##  3           3  2003                    X2: X-Men United
##  4           4  2004                        Taking Lives
##  5           5  1959                  North by Northwest
##  6           6  2004 Harold and Kumar Go to White Castle
##  7           7  2001               Bridget Jones's Diary
##  8           8  2000                       High Fidelity
##  9           9  2000                      Pay It Forward
## 10          10  1999                               Dogma
## # ... with 636 more rows
…
