Aprendizaje de máquina
…
Buscamos entonces minimizar la devianza (evaluada en la muestra de prueba), que corresponde a tomar un valor de \(\lambda\) alrededor de exp(-2).

Discusión: ¿por qué la devianza de prueba tiene esta forma, que es típica para problemas de regularización?

El modelo final queda como sigue:

df_lambdas 

## # A tibble: 50 x 2
##    modelo    lambda
##     <chr>     <dbl>
##  1     s0 225.94322
##  2     s1 187.22622
##  3     s2 155.14365
##  4     s3 128.55867
##  5     s4 106.52921
##  6     s5  88.27466
##  7     s6  73.14816
##  8     s7  60.61369
##  9     s8  50.22710
## 10     s9  41.62032
## # ... with 40 more rows
…
